{
"raiz" : "V",
"izquierda" : {
"raiz" : "M",
"izquierda" : {
"raiz" : "O",
"izquierda" : {
"raiz" : "T",
"izquierda" : null,
"derecha" : null
},
"derecha" : null
},
"derecha" : {
"raiz" : "S",
"izquierda" : {
"raiz" : "A",
"izquierda" : null,
"derecha" : null
},
"derecha" : null
}
},
"derecha" : {
"raiz" : "G",
"izquierda" : {
"raiz" : "N",
"izquierda" : {
"raiz" : "E",
"izquierda" : null,
"derecha" : null
},
"derecha" : {
"raiz" : "E",
"izquierda" : null,
"derecha" : null
}
},
"derecha" : {
"raiz" : "S",
"izquierda" : {
"raiz" : "A",
"izquierda" : null,
"derecha" : null
},
"derecha" : null
}
}
}